Lab5
…
The median values are Temp (23.5), Wind Speed (2.1), and Atmospheric Pressure (1014.1). The median station is 722246 in FL. Stations in Montanna came up after looking at the quartiles.

Question 2

representative_stations <- dat %>% group_by(STATE) %>%
  mutate(euclidean = sqrt((lat - mean(lat))^2 + (lon - mean(lon))^2)) %>% arrange(STATE, euclidean, lat) %>% slice(1) %>% select(STATE, USAFID, lat, lon, euclidean)
representative_stations

# A tibble: 48 × 5
# Groups:   STATE [48]
   STATE USAFID   lat    lon euclidean
   <chr>  <int> <dbl>  <dbl>     <dbl>
 1 AL    722300  33.2  -86.8    0.441 
 2 AR    723429  35.3  -93.1    0.411 
 3 AZ    723745  34.3 -111.     0.396 
 4 CA    723890  36.8 -120.     0.410 
 5 CO    726396  39.1 -106.     0.196 
 6 CT    725027  41.5  -72.8    0.114 
 7 DE    724088  39.1  -75.5    0.0284
 8 FL    722014  28.5  -82.5    0.149 
 9 GA    722175  32.6  -83.6    0.270 
10 IA    725466  41.7  -93.6    0.180 
# ℹ 38 more rows
…
Question 4

mean_values <- dat %>% group_by(STATE) %>%
     summarize(
         Mean_Temperature = mean(temp, na.rm = TRUE),
         Mean_Wind_Speed = mean(wind.sp, na.rm = TRUE),
         Mean_Atmospheric_Pressure = mean(atm.press, na.rm = TRUE)
     )

print(mean_values)

# A tibble: 48 × 4
   STATE Mean_Temperature Mean_Wind_Speed Mean_Atmospheric_Pressure
   <chr>            <dbl>           <dbl>                     <dbl>
 1 AL                26.2            1.57                     1016.
 2 AR                26.2            1.84                     1015.
 3 AZ                28.8            2.98                     1011.
 4 CA                22.4            2.61                     1013.
 5 CO                19.5            3.08                     1014.
 6 CT                22.3            2.19                     1015.
 7 DE                24.6            2.76                     1015.
 8 FL                27.5            2.50                     1015.
 9 GA                26.5            1.51                     1015.
10 IA                21.3            2.57                     1015.
# ℹ 38 more rows
…
